Lab3: Exploratory Data Analysis
…
nyc_wrecksdf <- nyc_wrecksdf |>
  mutate(`CRASH TIME` = as.POSIXct(`CRASH TIME`, format = "%H:%M:%S", tz = "UTC"))
time_counts <- nyc_wrecksdf |>
  count(`CRASH TIME`)|>
  arrange(desc(n))
summary_stats <- summary(time_counts$n)
print(summary_stats)

   Min. 1st Qu.  Median    Mean 3rd Qu.    Max. 
   1.00    3.00    5.00   10.48    9.00  306.00 

print(time_counts)

# A tibble: 1,405 × 2
   `CRASH TIME`            n
   <dttm>              <int>
 1 1970-01-01 00:00:00   306
 2 1970-01-01 16:00:00   152
 3 1970-01-01 19:00:00   149
 4 1970-01-01 12:00:00   134
 5 1970-01-01 13:00:00   129
 6 1970-01-01 14:00:00   128
 7 1970-01-01 17:00:00   125
 8 1970-01-01 15:00:00   120
 9 1970-01-01 17:30:00   114
10 1970-01-01 10:00:00   112
# ℹ 1,395 more rows
…
 chr [1:202] "Sedan" "Tractor Truck Diesel" "PK" ...

Whoa larger than I expected 202 different vehicle types for 10 most popular in or DF

vtype_counts <-vtype_long_clean |>
  count(vehicle_type, name = "count") |>
  arrange(desc(count))

print(vtype_counts)

# A tibble: 202 × 2
   vehicle_type                        count
   <chr>                               <int>
 1 Sedan                               11196
 2 Station Wagon/Sport Utility Vehicle  8594
 3 Bike                                 1135
 4 Pick-up Truck                         660
 5 Taxi                                  647
 6 Box Truck                             591
 7 Motorcycle                            415
 8 Moped                                 410
 9 Bus                                   392
10 E-Bike                                306
# ℹ 192 more rows
…
