Lab 4: Data Transformations
…
    extreme = percent_rank(log_return) > 0.95 | percent_rank(log_return) < 0.05
  ) |>
  ungroup()

kyles_mean <- stocks_ratio |> 
  group_by(symbol, extreme) |> 
  summarize(mean_kyle = mean(kyle, na.rm = TRUE)) |>
  ungroup()

`summarise()` has grouped output by 'symbol'. You can override using the
`.groups` argument.

kyles_mean

# A tibble: 42 × 3
   symbol extreme mean_kyle
   <chr>  <lgl>       <dbl>
 1 AAPL   FALSE      0.0203
 2 AAPL   TRUE       0.0308
 3 AAPL   NA       NaN     
 4 ADBE   FALSE      0.0194
 5 ADBE   TRUE       0.0366
 6 ADBE   NA       NaN     
 7 AMZN   FALSE      0.0240
 8 AMZN   TRUE       0.0356
 9 AMZN   NA       NaN     
10 CRM    FALSE      0.0204
# ℹ 32 more rows
…
