LLab 2: Tidy Data
…
ingredients_n <- mixed_drinks_long|>
  group_by(Ingredient)|>
  summarise(Count = n())|>
              arrange(desc(Count))
print(ingredients_n)|>
  slice_head(n=10)

# A tibble: 673 × 2
   Ingredient        Count
   <chr>             <int>
 1 Gin                 176
 2 Fresh lemon juice   138
 3 Simple Syrup        115
 4 Light Rum           114
 5 Vodka               114
 6 Dry Vermouth        107
 7 Fresh Lime Juice    107
 8 Triple Sec          107
 9 Powdered Sugar       90
10 Grenadine            85
# ℹ 663 more rows
…
mixed_drinks_long <- mixed_drinks_long |>
  mutate(Ingredient = case_when(
    Ingredient %in% c("Absinthe", "Absinthe or pastis", "Absinthe Substitute") ~ "Absinthe or pastis",
    Ingredient %in% c("Sugar Syrup", "Simple Syrup") ~ "Simple Syrup",
    Ingredient %in% c("Fresh Lime Juice", "Lime Juice", "Fresh Lime Juice, lime wheel", 
                      "Fresh lime juice (reserve 1/2 lime shell for garnish)") ~ "Lime Juice",
    Ingredient %in% c("Peychaud's Bitters", "Peychaud Bitters") ~ "Peychaud Bitters",
    Ingredient %in% c("port", "Port") ~ "Port",
    TRUE ~ Ingredient  # Leave other ingredients unchanged
  ))

print(ingredients_n)|>
  slice_head(n=10)

# A tibble: 673 × 2
   Ingredient        Count
   <chr>             <int>
 1 Gin                 176
 2 Fresh lemon juice   138
 3 Simple Syrup        115
 4 Light Rum           114
 5 Vodka               114
 6 Dry Vermouth        107
 7 Fresh Lime Juice    107
 8 Triple Sec          107
 9 Powdered Sugar       90
10 Grenadine            85
# ℹ 663 more rows
…
Note: You may be interested to read about the widyr package here: widyr page. It is designed to solve problems like this one and uses internal pivot steps to accomplish it so that the final result is tidy. I’m actually unaware of any easy ways of solving problem 5 without pivoting to a wide dataset.

library(widyr)

mixed_dynamic_dou<- mixed_drinks_wide|>
  pairwise_count(Rank_1,Rank_2, upper=FALSE )|>
  arrange(desc(n))
print(mixed_dynamic_dou)|>
  slice_head(n = 10)

# A tibble: 1,647 × 3
   item1           item2               n
   <chr>           <chr>           <dbl>
 1 Vodka           Blanco tequila     18
 2 Light Rum       Vodka              15
 3 Light Rum       Blanco tequila     14
 4 Bourbon whiskey Vodka              13
 5 Light Rum       Gin                11
 6 Bourbon whiskey Blanco tequila     11
 7 Brandy          Vodka              10
 8 Light Rum       Bourbon whiskey     8
 9 Gin             Vodka               8
10 Light Rum       Brandy              7
# ℹ 1,637 more rows
…
